tolerance 2.0 
filetype pdb
output _OUTPUTPDB_

structure _COSOLVENTPDB_
  number _NUMCOSOLVENT_
  inside cube 0. 0. 0. _MAXANGS_
end structure 

structure _WATERPDB_
  number _NUMWATER_
  inside cube 0. 0. 0. _MAXANGS_
end structure 

