
tolerance 2.0
filetype pdb
output solvated.pdb

structure water.pdb
  number 1
  center
  fixed 0. 0. 0. 0. 0. 0.
end structure

structure WATER.pdb
  number     969
  inside box -15.288499999999999 -15.8165 -15.0 15.288499999999999 15.8165 15.0
end structure


structure SODIUM.pdb
  number        3
  inside box -15.288499999999999 -15.8165 -15.0 15.288499999999999 15.8165 15.0
end structure
  

structure CHLORIDE.pdb
  number 3
  inside box -15.288499999999999 -15.8165 -15.0 15.288499999999999 15.8165 15.0
end structure
  
