            --------------------------------------------------------
                             AMBER SQM VERSION 17
 
                                     By
              Ross C. Walker, Michael F. Crowley, Scott Brozell,
                         Tim Giese, Andreas W. Goetz,
                        Tai-Sung Lee and David A. Case
 
            --------------------------------------------------------
 

--------------------------------------------------------------------------------
  QM CALCULATION INFO
--------------------------------------------------------------------------------

| QMMM: Citation for AMBER QMMM Run:
| QMMM: R.C. Walker, M.F. Crowley and D.A. Case, J. COMP. CHEM. 29:1019, 2008

QMMM: SINGLET STATE CALCULATION
QMMM: RHF CALCULATION, NO. OF DOUBLY OCCUPIED LEVELS = 61

| QMMM: *** Selected Hamiltonian *** 
| QMMM: AM1         

| QMMM: *** Parameter sets in use ***
| QMMM: C : M.J.S.DEWAR et al. JACS, 107, 3902, (1985)
| QMMM: H : M.J.S.DEWAR et al. JACS, 107, 3902, (1985)

| QMMM: *** SCF convergence criteria ***
| QMMM: Energy change                :  0.1D-09 kcal/mol
| QMMM: Error matrix |FP-PF|         :  0.1D+00 au
| QMMM: Density matrix change        :  0.5D-06
| QMMM: Maximum number of SCF cycles :     1000

| QMMM: *** Diagonalization Routine Information ***
| QMMM: Pseudo diagonalizations are allowed.
| QMMM: Auto diagonalization routine selection is in use.
| QMMM:
| QMMM: Timing diagonalization routines:
| QMMM:                              norbs =      122
| QMMM:    diag iterations used for timing =       10
| QMMM:
| QMMM:              Internal diag routine = 0.051644 seconds
| QMMM:                 Dspev diag routine = 0.063897 seconds
| QMMM:                Dspevd diag routine = 0.042891 seconds
| QMMM:                Dspevx diag routine = 0.158102 seconds
| QMMM:                 Dsyev diag routine = 0.053335 seconds
| QMMM:                Dsyevd diag routine = 0.049828 seconds
| QMMM:                Dsyevr diag routine = 0.042587 seconds
| QMMM:
| QMMM:                Pseudo diag routine = 0.022160 seconds
| QMMM:
| QMMM: Using dsyevr routine (diag_routine=7).

  QMMM: QM Region Cartesian Coordinates (*=link atom) 
  QMMM: QM_NO.   MM_NO.  ATOM         X         Y         Z
  QMMM:     1        1      C       -3.3710    2.1340   -0.2680
  QMMM:     2        2      C       -1.8680    2.3600   -0.2980
  QMMM:     3        3      H       -3.6560    1.3060   -0.9250
  QMMM:     4        4      H       -3.8960    3.0330   -0.6070
  QMMM:     5        5      H       -3.7130    1.9030    0.7460
  QMMM:     6        6      H       -1.5640    2.6210   -1.3190
  QMMM:     7        7      C       -1.1060    1.1210    0.1700
  QMMM:     8        8      H       -1.6190    3.2140    0.3420
  QMMM:     9        9      H       -1.3620    0.2680   -0.4710
  QMMM:    10       10      H       -1.4150    0.8630    1.1900
  QMMM:    11       11      C        0.4060    1.3510    0.1360
  QMMM:    12       12      H        0.7150    1.6110   -0.8830
  QMMM:    13       13      C        1.1690    0.1100    0.6020
  QMMM:    14       14      H        0.6620    2.2030    0.7790
  QMMM:    15       15      H        0.9090   -0.7420   -0.0380
  QMMM:    16       16      H        0.8630   -0.1480    1.6230
  QMMM:    17       17      C        2.6810    0.3380    0.5630
  QMMM:    18       18      H        2.9860    0.6000   -0.4580
  QMMM:    19       19      C        3.4430   -0.9050    1.0220
  QMMM:    20       20      H        2.9410    1.1880    1.2060
  QMMM:    21       21      H        3.1780   -1.7560    0.3820
  QMMM:    22       22      H        3.1430   -1.1640    2.0450
  QMMM:    23       23      C        4.9560   -0.6800    0.9740
  QMMM:    24       24      H        5.2540   -0.4150   -0.0480
  QMMM:    25       25      C        5.7190   -1.9270    1.4230
  QMMM:    26       26      H        5.2220    0.1670    1.6180
  QMMM:    27       27      H        5.4460   -2.7750    0.7830
  QMMM:    28       28      H        5.4260   -2.1880    2.4480
  QMMM:    29       29      C        7.2310   -1.7060    1.3630
  QMMM:    30       30      H        7.5220   -1.4380    0.3390
  QMMM:    31       31      C        7.9950   -2.9570    1.8000
  QMMM:    32       32      H        7.5060   -0.8620    2.0080
  QMMM:    33       33      H        7.7130   -3.8010    1.1590
  QMMM:    34       34      H        7.7100   -3.2200    2.8260
  QMMM:    35       35      C        9.5070   -2.7400    1.7260
  QMMM:    36       36      H        9.7890   -2.4690    0.7020
  QMMM:    37       37      C       10.2700   -3.9950    2.1530
  QMMM:    38       38      H        9.7900   -1.9000    2.3730
  QMMM:    39       39      H        9.9810   -4.8360    1.5110
  QMMM:    40       40      H        9.9940   -4.2620    3.1800
  QMMM:    41       41      C       11.7830   -3.7820    2.0670
  QMMM:    42       42      H       12.0570   -3.5090    1.0400
  QMMM:    43       43      C       12.5460   -5.0400    2.4830
  QMMM:    44       44      H       12.0730   -2.9450    2.7130
  QMMM:    45       45      H       12.2510   -5.8780    1.8400
  QMMM:    46       46      H       12.2770   -5.3100    3.5110
  QMMM:    47       47      C       14.0580   -4.8300    2.3880
  QMMM:    48       48      H       14.3270   -4.5560    1.3600
  QMMM:    49       49      C       14.8220   -6.0910    2.7970
  QMMM:    50       50      H       14.3550   -3.9950    3.0330
  QMMM:    51       51      H       14.5220   -6.9270    2.1540
  QMMM:    52       52      H       14.5560   -6.3630    3.8260
  QMMM:    53       53      C       16.3340   -5.8830    2.6960
  QMMM:    54       54      H       16.5990   -5.6090    1.6680
  QMMM:    55       55      C       17.0970   -7.1440    3.1020
  QMMM:    56       56      H       16.6340   -5.0480    3.3410
  QMMM:    57       57      H       16.8020   -7.9810    2.4590
  QMMM:    58       58      H       16.8390   -7.4190    4.1320
  QMMM:    59       59      C       18.6000   -6.9420    3.0010
  QMMM:    60       60      H       18.8950   -6.6960    1.9760
  QMMM:    61       61      H       19.1260   -7.8550    3.2960
  QMMM:    62       62      H       18.9320   -6.1310    3.6580

--------------------------------------------------------------------------------
  RESULTS
--------------------------------------------------------------------------------

      iter         sqm energy              rms gradient
      ----    -------------------    -----------------------
xmin    10     -141.0384 kcal/mol        0.0033 kcal/(mol*A)
xmin    20     -141.0407 kcal/mol        0.0157 kcal/(mol*A)
xmin    30     -141.0411 kcal/mol        0.0014 kcal/(mol*A)
xmin    40     -141.0411 kcal/mol        0.0005 kcal/(mol*A)
xmin    40     -141.0411 kcal/mol        0.0003 kcal/(mol*A)
  ... geometry converged !
 
 Final MO eigenvalues (eV):
 -38.2427  -37.8410  -37.1863  -36.2935  -35.1838  -33.8840  -32.4256  -30.8451
 -29.1840  -27.4896  -25.8181  -24.2407  -22.8588  -21.9205  -21.8075  -21.7270
 -21.4298  -21.2753  -21.0416  -20.9849  -17.1494  -16.9403  -16.6087  -16.1722
 -15.6545  -15.2816  -15.1660  -15.0828  -15.0195  -14.7862  -14.4857  -14.4088
 -14.2893  -13.8906  -13.7562  -13.6132  -13.3226  -13.2256  -12.9196  -12.8025
 -12.6272  -12.4867  -12.3462  -12.1656  -12.0336  -11.9631  -11.8412  -11.8168
 -11.6878  -11.6569  -11.6567  -11.6212  -11.4256  -11.2796  -11.2626  -11.1577
 -11.0985  -11.0716  -11.0675  -11.0648  -10.9244    3.4611    3.6132    3.6426
   3.6797    3.7369    3.8129    3.8207    3.9052    4.0105    4.0395    4.1255
   4.1833    4.2274    4.2294    4.2470    4.3091    4.3548    4.3723    4.4442
   4.4727    4.4989    4.5801    4.5984    4.6049    4.6245    4.6460    4.7030
   4.7098    4.7308    4.7472    4.8051    4.8127    4.8499    4.8656    4.9127
   4.9166    4.9487    4.9779    5.0451    5.0473    5.0566    5.0822    5.1304
   5.1701    5.1762    5.1907    5.2083    5.2444    5.2578    5.2620    5.2658
   5.3006    5.3093    5.3122    5.3243    5.3467    5.3732    5.3791    5.4014
   5.4037    5.4172

 Heat of formation   =       -141.04107145 kcal/mol  (       -6.11599980 eV)

 Total SCF energy    =     -72507.93170810 kcal/mol  (    -3144.17985812 eV)
 Electronic energy   =    -521654.51376452 kcal/mol  (   -22620.63716944 eV)
 Core-core repulsion =     449146.58205641 kcal/mol  (    19476.45731132 eV)
 
    Atomic Charges for Step       1 :
  Atom    Element       Mulliken Charge
     1      C                 -0.210
     2      C                 -0.159
     3      H                  0.072
     4      H                  0.072
     5      H                  0.072
     6      H                  0.078
     7      C                 -0.158
     8      H                  0.078
     9      H                  0.079
    10      H                  0.079
    11      C                 -0.158
    12      H                  0.079
    13      C                 -0.158
    14      H                  0.079
    15      H                  0.079
    16      H                  0.079
    17      C                 -0.158
    18      H                  0.079
    19      C                 -0.158
    20      H                  0.079
    21      H                  0.079
    22      H                  0.079
    23      C                 -0.158
    24      H                  0.079
    25      C                 -0.158
    26      H                  0.079
    27      H                  0.079
    28      H                  0.079
    29      C                 -0.158
    30      H                  0.079
    31      C                 -0.158
    32      H                  0.079
    33      H                  0.079
    34      H                  0.079
    35      C                 -0.158
    36      H                  0.079
    37      C                 -0.158
    38      H                  0.079
    39      H                  0.079
    40      H                  0.079
    41      C                 -0.158
    42      H                  0.079
    43      C                 -0.158
    44      H                  0.079
    45      H                  0.079
    46      H                  0.079
    47      C                 -0.158
    48      H                  0.079
    49      C                 -0.158
    50      H                  0.079
    51      H                  0.079
    52      H                  0.079
    53      C                 -0.158
    54      H                  0.079
    55      C                 -0.159
    56      H                  0.079
    57      H                  0.078
    58      H                  0.078
    59      C                 -0.210
    60      H                  0.072
    61      H                  0.072
    62      H                  0.072
 Total Mulliken Charge =       0.000
 
                  X        Y        Z     TOTAL  
  QM DIPOLE    -0.000   -0.000    0.000    0.000
 
 Final Structure

  QMMM: QM Region Cartesian Coordinates (*=link atom) 
  QMMM: QM_NO.   MM_NO.  ATOM         X         Y         Z
  QMMM:     1        1      C       -3.2611    2.1315   -0.1259
  QMMM:     2        2      C       -1.7707    2.3432   -0.1900
  QMMM:     3        3      H       -3.5696    1.2928   -0.7959
  QMMM:     4        4      H       -3.7990    3.0558   -0.4476
  QMMM:     5        5      H       -3.5798    1.8823    0.9151
  QMMM:     6        6      H       -1.4734    2.6166   -1.2370
  QMMM:     7        7      C       -1.0143    1.1047    0.2413
  QMMM:     8        8      H       -1.4836    3.2046    0.4695
  QMMM:     9        9      H       -1.2989    0.2426   -0.4180
  QMMM:    10       10      H       -1.3090    0.8307    1.2886
  QMMM:    11       11      C        0.4821    1.3219    0.1753
  QMMM:    12       12      H        0.7766    1.5959   -0.8721
  QMMM:    13       13      C        1.2370    0.0829    0.6069
  QMMM:    14       14      H        0.7664    2.1841    0.8345
  QMMM:    15       15      H        0.9526   -0.7794   -0.0522
  QMMM:    16       16      H        0.9427   -0.1910    1.6543
  QMMM:    17       17      C        2.7335    0.3001    0.5407
  QMMM:    18       18      H        3.0279    0.5739   -0.5068
  QMMM:    19       19      C        3.4884   -0.9388    0.9724
  QMMM:    20       20      H        3.0179    1.1625    1.1996
  QMMM:    21       21      H        3.2039   -1.8012    0.3136
  QMMM:    22       22      H        3.1941   -1.2124    2.0200
  QMMM:    23       23      C        4.9849   -0.7217    0.9061
  QMMM:    24       24      H        5.2791   -0.4484   -0.1416
  QMMM:    25       25      C        5.7397   -1.9604    1.3384
  QMMM:    26       26      H        5.2693    0.1410    1.5646
  QMMM:    27       27      H        5.4552   -2.8231    0.6798
  QMMM:    28       28      H        5.4454   -2.2336    2.3860
  QMMM:    29       29      C        7.2362   -1.7432    1.2719
  QMMM:    30       30      H        7.5305   -1.4705    0.2242
  QMMM:    31       31      C        7.9910   -2.9817    1.7050
  QMMM:    32       32      H        7.5206   -0.8802    1.9300
  QMMM:    33       33      H        7.7067   -3.8448    1.0469
  QMMM:    34       34      H        7.6967   -3.2544    2.7527
  QMMM:    35       35      C        9.4875   -2.7645    1.6386
  QMMM:    36       36      H        9.7820   -2.4924    0.5908
  QMMM:    37       37      C       10.2423   -4.0027    2.0725
  QMMM:    38       38      H        9.7718   -1.9011    2.2963
  QMMM:    39       39      H        9.9581   -4.8662    1.4149
  QMMM:    40       40      H        9.9479   -4.2748    3.1204
  QMMM:    41       41      C       11.7389   -3.7855    2.0062
  QMMM:    42       42      H       12.0334   -3.5138    0.9582
  QMMM:    43       43      C       12.4937   -5.0236    2.4404
  QMMM:    44       44      H       12.0231   -2.9219    2.6635
  QMMM:    45       45      H       12.2093   -5.8873    1.7832
  QMMM:    46       46      H       12.1993   -5.2953    3.4885
  QMMM:    47       47      C       13.9902   -4.8065    2.3739
  QMMM:    48       48      H       14.2846   -4.5350    1.3259
  QMMM:    49       49      C       14.7450   -6.0445    2.8083
  QMMM:    50       50      H       14.2745   -3.9428    3.0311
  QMMM:    51       51      H       14.4605   -6.9083    2.1513
  QMMM:    52       52      H       14.4507   -6.3160    3.8564
  QMMM:    53       53      C       16.2414   -5.8277    2.7417
  QMMM:    54       54      H       16.5361   -5.5564    1.6937
  QMMM:    55       55      C       16.9977   -7.0652    3.1760
  QMMM:    56       56      H       16.5262   -4.9640    3.3987
  QMMM:    57       57      H       16.7105   -7.9282    2.5188
  QMMM:    58       58      H       16.7006   -7.3358    4.2237
  QMMM:    59       59      C       18.4882   -6.8538    3.1112
  QMMM:    60       60      H       18.8067   -6.6074    2.0695
  QMMM:    61       61      H       19.0259   -7.7773    3.4353
  QMMM:    62       62      H       18.7968   -6.0134    3.7790

           --------- Calculation Completed ----------

